INDEX VERSION 1.131+C:\SpringBootClass\.metadata\.plugins\org.eclipse.jdt.core
659402744.index
3169387928.index
759959652.index
1404624153.index
428227614.index
718423577.index
2426999165.index
2263502544.index
2703069627.index
3456269004.index
347784850.index
670383582.index
2733485612.index
3712815050.index
1323489559.index
635205066.index
3088357246.index
3203491596.index
3318954644.index
2366027109.index
3259463373.index
2450917413.index
2338591627.index
3563044817.index
1146600727.index
2181316792.index
317549071.index
2178475956.index
2613306830.index
4083528028.index
693454479.index
837572917.index
1313026600.index
4134778327.index
1503377600.index
3422532915.index
1455153716.index
3633465371.index
3660729525.index
3461612720.index
2945087931.index
2155388736.index
871747500.index
1592772838.index
4223194513.index
80837824.index
1657600828.index
3436913197.index
1193882840.index
4231190828.index
451940559.index
3998386731.index
1653171616.index
2001223974.index
1947110154.index
1123846860.index
315311230.index
1760978280.index
1450184219.index
1921249236.index
1865797976.index
2862864797.index
2020644160.index
2258036928.index
3733682052.index
1125546213.index
1423782707.index
1178369584.index
2114429436.index
492010810.index
4074008409.index
3199467914.index
273565171.index
16000492.index
1201133101.index
638238616.index
3191073265.index
519139672.index
2394072831.index
2753799722.index
1008388541.index
12710718.index
160131615.index
468850105.index
3780307497.index
159635492.index
3773752792.index
2924457907.index
2753952873.index
4273283311.index
3203353901.index
2896702676.index
1198428230.index
